Memo first draft
…
Spending by state

spending |> 
group_by(state_nm) |> 
  summarize(
    n = n(),
    total_spent = sum(spending_total, na.rm = TRUE)
  ) |> 
  arrange(desc(total_spent))

# A tibble: 62 × 3
   state_nm          n  total_spent
   <chr>         <int>        <dbl>
 1 TEXAS           698 256940975810
 2 VIRGINIA        632 215844862913
 3 CALIFORNIA      274 185596851407
 4 <NA>              5 120397512704
 5 CONNECTICUT     112 107362289526
 6 FLORIDA         294 105220419866
 7 MARYLAND        130  90195194456
 8 NEW YORK        309  84055674816
 9 PENNSYLVANIA    317  81938436057
10 MASSACHUSETTS    74  80182210254
# ℹ 52 more rows

Spending by county

spending |> 
group_by(cty_name, state_nm) |> 
  summarize(
     total_spent = sum(spending_total, na.rm = TRUE),
     n = n()
  ) |> 
  arrange(desc(total_spent))

`summarise()` has grouped output by 'cty_name'. You can override using the
`.groups` argument.

# A tibble: 2,754 × 4
# Groups:   cty_name [1,698]
   cty_name    state_nm       total_spent     n
   <chr>       <chr>                <dbl> <int>
 1 TARRANT     TEXAS         121527757824     5
 2 <NA>        <NA>          120397512704     5
 3 FAIRFAX     VIRGINIA       83552362496     5
 4 SAN DIEGO   CALIFORNIA     55411527680     5
 5 NEW LONDON  CONNECTICUT    50510425575    10
 6 DALLAS      TEXAS          48848848896     5
 7 LOS ANGELES CALIFORNIA     46751993344     5
 8 SAINT LOUIS MISSOURI       45924375552     5
 9 MIDDLESEX   MASSACHUSETTS  45255071232     5
10 PIMA        ARIZONA        45238097408     5
# ℹ 2,744 more rows
…
state_spending_pop <- state_spending_pop |>
  mutate(
    spending_per_capita = total_spent / population
  ) 

state_spending_pop |>
  filter(fyear == 2024) |>
  arrange(desc(spending_per_capita)) |>
  select(state, total_spent, population, spending_per_capita)

# A tibble: 62 × 4
   state         total_spent population spending_per_capita
   <chr>               <dbl>      <dbl>               <dbl>
 1 Virginia      50776280367    8705170               5833.
 2 Connecticut   19477455035    3624508               5374.
 3 Hawaii         5218442092    1445235               3611.
 4 Alaska         2357173984     735706               3204.
 5 Maryland      18960135560    6206011               3055.
 6 Alabama       13343091373    5086768               2623.
 7 Kentucky      11585433997    4534824               2555.
 8 Maine          3495546926    1387817               2519.
 9 Arizona       15520223128    7378838               2103.
10 Massachusetts 14677023088    7044056               2084.
# ℹ 52 more rows
…
